A1_Hill_Cipher/simulation/qsim/A1_Hill_Cipher.msim.vcd
$comment
	File created using the following command:
		vcd file A1_Hill_Cipher.msim.vcd -direction
$end
$date
	Thu Jan 21 11:17:11 2016
$end
$version
	ModelSim Version 10.1d
$end
$timescale
	1ps
$end
$scope module matrix_mult_struct_vlg_vec_tst $end
$var reg 1 ! clk $end
$var reg 4 " k11 [3:0] $end
$var reg 4 # k12 [3:0] $end
$var reg 4 $ k13 [3:0] $end
$var reg 4 % k21 [3:0] $end
$var reg 4 & k22 [3:0] $end
$var reg 4 ' k23 [3:0] $end
$var reg 4 ( k31 [3:0] $end
$var reg 4 ) k32 [3:0] $end
$var reg 4 * k33 [3:0] $end
$var reg 4 + p1 [3:0] $end
$var reg 4 , p2 [3:0] $end
$var reg 4 - p3 [3:0] $end
$var wire 1 . c1 [3] $end
$var wire 1 / c1 [2] $end
$var wire 1 0 c1 [1] $end
$var wire 1 1 c1 [0] $end
$var wire 1 2 c2 [3] $end
$var wire 1 3 c2 [2] $end
$var wire 1 4 c2 [1] $end
$var wire 1 5 c2 [0] $end
$var wire 1 6 c3 [3] $end
$var wire 1 7 c3 [2] $end
$var wire 1 8 c3 [1] $end
$var wire 1 9 c3 [0] $end
$var wire 1 : sampler $end
$scope module i1 $end
$var wire 1 ; gnd $end
$var wire 1 < vcc $end
$var wire 1 = unknown $end
$var tri1 1 > devclrn $end
$var tri1 1 ? devpor $end
$var tri1 1 @ devoe $end
$var wire 1 A col1|lpm_mult_2|auto_generated|op_3~0_combout $end
$var wire 1 B col1|lpm_add_1|auto_generated|op_1~0_combout $end
$var wire 1 C col1|lpm_mult_3|auto_generated|op_3~2_combout $end
$var wire 1 D col1|lpm_mult_2|auto_generated|op_3~2_combout $end
$var wire 1 E col1|lpm_mult_3|auto_generated|op_3~4_combout $end
$var wire 1 F col1|lpm_mult_2|auto_generated|op_3~4_combout $end
$var wire 1 G col2|lpm_mult_1|auto_generated|op_3~0_combout $end
$var wire 1 H col2|lpm_add_1|auto_generated|op_1~0_combout $end
$var wire 1 I col2|lpm_mult_3|auto_generated|op_3~2_combout $end
$var wire 1 J col2|lpm_mult_1|auto_generated|op_3~2_combout $end
$var wire 1 K col2|lpm_mult_1|auto_generated|op_3~4_combout $end
$var wire 1 L col2|lpm_add_1|auto_generated|op_1~4_combout $end
$var wire 1 M col3|lpm_mult_1|auto_generated|op_3~0_combout $end
$var wire 1 N col3|lpm_mult_1|auto_generated|op_3~1 $end
$var wire 1 O col3|lpm_add_1|auto_generated|op_1~0_combout $end
$var wire 1 P col3|lpm_mult_3|auto_generated|op_3~2_combout $end
$var wire 1 Q col3|lpm_mult_1|auto_generated|op_3~2_combout $end
$var wire 1 R col3|lpm_mult_1|auto_generated|op_3~3 $end
$var wire 1 S col3|lpm_mult_3|auto_generated|op_3~4_combout $end
$var wire 1 T col3|lpm_mult_1|auto_generated|op_3~4_combout $end
$var wire 1 U col3|lpm_mult_1|auto_generated|op_3~5 $end
$var wire 1 V col3|lpm_mult_2|auto_generated|op_3~5 $end
$var wire 1 W col3|lpm_add_1|auto_generated|op_1~5 $end
$var wire 1 X col3|lpm_mult_1|auto_generated|op_3~6_combout $end
$var wire 1 Y col3|lpm_mult_2|auto_generated|op_3~6_combout $end
$var wire 1 Z col3|lpm_add_1|auto_generated|op_1~6_combout $end
$var wire 1 [ col1|lpm_mult_2|auto_generated|op_1~0_combout $end
$var wire 1 \ col2|lpm_mult_3|auto_generated|op_1~1_combout $end
$var wire 1 ] col2|lpm_mult_2|auto_generated|cs1a[1]~0_combout $end
$var wire 1 ^ col3|lpm_mult_3|auto_generated|op_1~0_combout $end
$var wire 1 _ col3|lpm_mult_1|auto_generated|op_1~0_combout $end
$var wire 1 ` col3|lpm_mult_1|auto_generated|cs1a[1]~0_combout $end
$var wire 1 a col3|lpm_mult_1|auto_generated|op_1~1_combout $end
$var wire 1 b col3|lpm_mult_2|auto_generated|cs1a[1]~0_combout $end
$var wire 1 c col3|lpm_mult_2|auto_generated|op_1~1_combout $end
$var wire 1 d col1|lpm_mult_3|auto_generated|cs2a[1]~0_combout $end
$var wire 1 e col1|lpm_mult_1|auto_generated|cs2a[1]~0_combout $end
$var wire 1 f col1|lpm_mult_2|auto_generated|cs2a[1]~0_combout $end
$var wire 1 g col2|lpm_mult_3|auto_generated|cs2a[1]~0_combout $end
$var wire 1 h col2|lpm_mult_1|auto_generated|cs2a[1]~0_combout $end
$var wire 1 i col3|lpm_mult_3|auto_generated|cs2a[1]~0_combout $end
$var wire 1 j col3|lpm_mult_1|auto_generated|cs2a[1]~0_combout $end
$var wire 1 k col3|lpm_mult_2|auto_generated|cs2a[1]~0_combout $end
$var wire 1 l clk~combout $end
$var wire 1 m clk~clkctrl_outclk $end
$var wire 1 n col1|lpm_mult_3|auto_generated|op_3~0_combout $end
$var wire 1 o lpm_ff_c1|dffs[0]~4_combout $end
$var wire 1 p col1|lpm_mult_1|auto_generated|op_3~1 $end
$var wire 1 q col1|lpm_mult_1|auto_generated|op_3~2_combout $end
$var wire 1 r col1|lpm_mult_1|auto_generated|op_3~0_combout $end
$var wire 1 s col1|lpm_add_1|auto_generated|op_1~1 $end
$var wire 1 t col1|lpm_add_1|auto_generated|op_1~2_combout $end
$var wire 1 u lpm_ff_c1|dffs[0]~5 $end
$var wire 1 v lpm_ff_c1|dffs[1]~6_combout $end
$var wire 1 w col1|lpm_mult_1|auto_generated|op_1~0_combout $end
$var wire 1 x col1|lpm_mult_1|auto_generated|op_3~3 $end
$var wire 1 y col1|lpm_mult_1|auto_generated|op_3~4_combout $end
$var wire 1 z col1|lpm_add_1|auto_generated|op_1~3 $end
$var wire 1 { col1|lpm_add_1|auto_generated|op_1~4_combout $end
$var wire 1 | lpm_ff_c1|dffs[1]~7 $end
$var wire 1 } lpm_ff_c1|dffs[2]~8_combout $end
$var wire 1 ~ col1|lpm_mult_3|auto_generated|cs1a[1]~0_combout $end
$var wire 1 !! col1|lpm_mult_3|auto_generated|op_1~1_combout $end
$var wire 1 "! col1|lpm_mult_3|auto_generated|op_1~0_combout $end
$var wire 1 #! col1|lpm_mult_3|auto_generated|op_3~1 $end
$var wire 1 $! col1|lpm_mult_3|auto_generated|op_3~3 $end
$var wire 1 %! col1|lpm_mult_3|auto_generated|op_3~5 $end
$var wire 1 &! col1|lpm_mult_3|auto_generated|op_3~6_combout $end
$var wire 1 '! col1|lpm_mult_2|auto_generated|cs1a[1]~0_combout $end
$var wire 1 (! col1|lpm_mult_2|auto_generated|op_1~1_combout $end
$var wire 1 )! col1|lpm_mult_2|auto_generated|op_3~1 $end
$var wire 1 *! col1|lpm_mult_2|auto_generated|op_3~3 $end
$var wire 1 +! col1|lpm_mult_2|auto_generated|op_3~5 $end
$var wire 1 ,! col1|lpm_mult_2|auto_generated|op_3~6_combout $end
$var wire 1 -! col1|lpm_mult_1|auto_generated|cs1a[1]~0_combout $end
$var wire 1 .! col1|lpm_mult_1|auto_generated|op_1~1_combout $end
$var wire 1 /! col1|lpm_mult_1|auto_generated|op_3~5 $end
$var wire 1 0! col1|lpm_mult_1|auto_generated|op_3~6_combout $end
$var wire 1 1! col1|lpm_add_1|auto_generated|op_1~5 $end
$var wire 1 2! col1|lpm_add_1|auto_generated|op_1~6_combout $end
$var wire 1 3! lpm_ff_c1|dffs[2]~9 $end
$var wire 1 4! lpm_ff_c1|dffs[3]~10_combout $end
$var wire 1 5! col2|lpm_mult_3|auto_generated|op_3~0_combout $end
$var wire 1 6! lpm_ff_c2|dffs[0]~4_combout $end
$var wire 1 7! col2|lpm_mult_2|auto_generated|op_3~1 $end
$var wire 1 8! col2|lpm_mult_2|auto_generated|op_3~2_combout $end
$var wire 1 9! col2|lpm_mult_2|auto_generated|op_3~0_combout $end
$var wire 1 :! col2|lpm_add_1|auto_generated|op_1~1 $end
$var wire 1 ;! col2|lpm_add_1|auto_generated|op_1~2_combout $end
$var wire 1 <! lpm_ff_c2|dffs[0]~5 $end
$var wire 1 =! lpm_ff_c2|dffs[1]~6_combout $end
$var wire 1 >! col2|lpm_mult_3|auto_generated|op_1~0_combout $end
$var wire 1 ?! col2|lpm_mult_3|auto_generated|op_3~1 $end
$var wire 1 @! col2|lpm_mult_3|auto_generated|op_3~3 $end
$var wire 1 A! col2|lpm_mult_3|auto_generated|op_3~4_combout $end
$var wire 1 B! lpm_ff_c2|dffs[1]~7 $end
$var wire 1 C! lpm_ff_c2|dffs[2]~8_combout $end
$var wire 1 D! col2|lpm_mult_3|auto_generated|cs1a[1]~0_combout $end
$var wire 1 E! col2|lpm_mult_3|auto_generated|op_3~5 $end
$var wire 1 F! col2|lpm_mult_3|auto_generated|op_3~6_combout $end
$var wire 1 G! col2|lpm_mult_1|auto_generated|cs1a[1]~0_combout $end
$var wire 1 H! col2|lpm_mult_1|auto_generated|op_1~1_combout $end
$var wire 1 I! col2|lpm_mult_1|auto_generated|op_1~0_combout $end
$var wire 1 J! col2|lpm_mult_1|auto_generated|op_3~1 $end
$var wire 1 K! col2|lpm_mult_1|auto_generated|op_3~3 $end
$var wire 1 L! col2|lpm_mult_1|auto_generated|op_3~5 $end
$var wire 1 M! col2|lpm_mult_1|auto_generated|op_3~6_combout $end
$var wire 1 N! col2|lpm_mult_2|auto_generated|cs2a[1]~0_combout $end
$var wire 1 O! col2|lpm_mult_2|auto_generated|op_1~1_combout $end
$var wire 1 P! col2|lpm_mult_2|auto_generated|op_1~0_combout $end
$var wire 1 Q! col2|lpm_mult_2|auto_generated|op_3~3 $end
$var wire 1 R! col2|lpm_mult_2|auto_generated|op_3~5 $end
$var wire 1 S! col2|lpm_mult_2|auto_generated|op_3~6_combout $end
$var wire 1 T! col2|lpm_mult_2|auto_generated|op_3~4_combout $end
$var wire 1 U! col2|lpm_add_1|auto_generated|op_1~3 $end
$var wire 1 V! col2|lpm_add_1|auto_generated|op_1~5 $end
$var wire 1 W! col2|lpm_add_1|auto_generated|op_1~6_combout $end
$var wire 1 X! lpm_ff_c2|dffs[2]~9 $end
$var wire 1 Y! lpm_ff_c2|dffs[3]~10_combout $end
$var wire 1 Z! col3|lpm_mult_3|auto_generated|op_3~0_combout $end
$var wire 1 [! lpm_ff_c3|dffs[0]~4_combout $end
$var wire 1 \! col3|lpm_mult_2|auto_generated|op_3~1 $end
$var wire 1 ]! col3|lpm_mult_2|auto_generated|op_3~2_combout $end
$var wire 1 ^! col3|lpm_mult_2|auto_generated|op_3~0_combout $end
$var wire 1 _! col3|lpm_add_1|auto_generated|op_1~1 $end
$var wire 1 `! col3|lpm_add_1|auto_generated|op_1~2_combout $end
$var wire 1 a! lpm_ff_c3|dffs[0]~5 $end
$var wire 1 b! lpm_ff_c3|dffs[1]~6_combout $end
$var wire 1 c! col3|lpm_mult_2|auto_generated|op_1~0_combout $end
$var wire 1 d! col3|lpm_mult_2|auto_generated|op_3~3 $end
$var wire 1 e! col3|lpm_mult_2|auto_generated|op_3~4_combout $end
$var wire 1 f! col3|lpm_add_1|auto_generated|op_1~3 $end
$var wire 1 g! col3|lpm_add_1|auto_generated|op_1~4_combout $end
$var wire 1 h! lpm_ff_c3|dffs[1]~7 $end
$var wire 1 i! lpm_ff_c3|dffs[2]~8_combout $end
$var wire 1 j! col3|lpm_mult_3|auto_generated|cs1a[1]~0_combout $end
$var wire 1 k! col3|lpm_mult_3|auto_generated|op_1~1_combout $end
$var wire 1 l! col3|lpm_mult_3|auto_generated|op_3~1 $end
$var wire 1 m! col3|lpm_mult_3|auto_generated|op_3~3 $end
$var wire 1 n! col3|lpm_mult_3|auto_generated|op_3~5 $end
$var wire 1 o! col3|lpm_mult_3|auto_generated|op_3~6_combout $end
$var wire 1 p! lpm_ff_c3|dffs[2]~9 $end
$var wire 1 q! lpm_ff_c3|dffs[3]~10_combout $end
$var wire 1 r! col2|lpm_mult_1|auto_generated|le3a [5] $end
$var wire 1 s! col2|lpm_mult_1|auto_generated|le3a [4] $end
$var wire 1 t! col2|lpm_mult_1|auto_generated|le3a [3] $end
$var wire 1 u! col2|lpm_mult_1|auto_generated|le3a [2] $end
$var wire 1 v! col2|lpm_mult_1|auto_generated|le3a [1] $end
$var wire 1 w! col2|lpm_mult_1|auto_generated|le3a [0] $end
$var wire 1 x! lpm_ff_p2|dffs [3] $end
$var wire 1 y! lpm_ff_p2|dffs [2] $end
$var wire 1 z! lpm_ff_p2|dffs [1] $end
$var wire 1 {! lpm_ff_p2|dffs [0] $end
$var wire 1 |! col1|lpm_mult_2|auto_generated|le3a [5] $end
$var wire 1 }! col1|lpm_mult_2|auto_generated|le3a [4] $end
$var wire 1 ~! col1|lpm_mult_2|auto_generated|le3a [3] $end
$var wire 1 !" col1|lpm_mult_2|auto_generated|le3a [2] $end
$var wire 1 "" col1|lpm_mult_2|auto_generated|le3a [1] $end
$var wire 1 #" col1|lpm_mult_2|auto_generated|le3a [0] $end
$var wire 1 $" col3|lpm_mult_2|auto_generated|le4a [5] $end
$var wire 1 %" col3|lpm_mult_2|auto_generated|le4a [4] $end
$var wire 1 &" col3|lpm_mult_2|auto_generated|le4a [3] $end
$var wire 1 '" col3|lpm_mult_2|auto_generated|le4a [2] $end
$var wire 1 (" col3|lpm_mult_2|auto_generated|le4a [1] $end
$var wire 1 )" col3|lpm_mult_2|auto_generated|le4a [0] $end
$var wire 1 *" col2|lpm_mult_3|auto_generated|le4a [5] $end
$var wire 1 +" col2|lpm_mult_3|auto_generated|le4a [4] $end
$var wire 1 ," col2|lpm_mult_3|auto_generated|le4a [3] $end
$var wire 1 -" col2|lpm_mult_3|auto_generated|le4a [2] $end
$var wire 1 ." col2|lpm_mult_3|auto_generated|le4a [1] $end
$var wire 1 /" col2|lpm_mult_3|auto_generated|le4a [0] $end
$var wire 1 0" col1|lpm_mult_3|auto_generated|le4a [5] $end
$var wire 1 1" col1|lpm_mult_3|auto_generated|le4a [4] $end
$var wire 1 2" col1|lpm_mult_3|auto_generated|le4a [3] $end
$var wire 1 3" col1|lpm_mult_3|auto_generated|le4a [2] $end
$var wire 1 4" col1|lpm_mult_3|auto_generated|le4a [1] $end
$var wire 1 5" col1|lpm_mult_3|auto_generated|le4a [0] $end
$var wire 1 6" col1|lpm_mult_3|auto_generated|le3a [5] $end
$var wire 1 7" col1|lpm_mult_3|auto_generated|le3a [4] $end
$var wire 1 8" col1|lpm_mult_3|auto_generated|le3a [3] $end
$var wire 1 9" col1|lpm_mult_3|auto_generated|le3a [2] $end
$var wire 1 :" col1|lpm_mult_3|auto_generated|le3a [1] $end
$var wire 1 ;" col1|lpm_mult_3|auto_generated|le3a [0] $end
$var wire 1 <" col2|lpm_mult_2|auto_generated|le3a [5] $end
$var wire 1 =" col2|lpm_mult_2|auto_generated|le3a [4] $end
$var wire 1 >" col2|lpm_mult_2|auto_generated|le3a [3] $end
$var wire 1 ?" col2|lpm_mult_2|auto_generated|le3a [2] $end
$var wire 1 @" col2|lpm_mult_2|auto_generated|le3a [1] $end
$var wire 1 A" col2|lpm_mult_2|auto_generated|le3a [0] $end
$var wire 1 B" col3|lpm_mult_1|auto_generated|le3a [5] $end
$var wire 1 C" col3|lpm_mult_1|auto_generated|le3a [4] $end
$var wire 1 D" col3|lpm_mult_1|auto_generated|le3a [3] $end
$var wire 1 E" col3|lpm_mult_1|auto_generated|le3a [2] $end
$var wire 1 F" col3|lpm_mult_1|auto_generated|le3a [1] $end
$var wire 1 G" col3|lpm_mult_1|auto_generated|le3a [0] $end
$var wire 1 H" col2|lpm_mult_2|auto_generated|le4a [5] $end
$var wire 1 I" col2|lpm_mult_2|auto_generated|le4a [4] $end
$var wire 1 J" col2|lpm_mult_2|auto_generated|le4a [3] $end
$var wire 1 K" col2|lpm_mult_2|auto_generated|le4a [2] $end
$var wire 1 L" col2|lpm_mult_2|auto_generated|le4a [1] $end
$var wire 1 M" col2|lpm_mult_2|auto_generated|le4a [0] $end
$var wire 1 N" col3|lpm_mult_2|auto_generated|le3a [5] $end
$var wire 1 O" col3|lpm_mult_2|auto_generated|le3a [4] $end
$var wire 1 P" col3|lpm_mult_2|auto_generated|le3a [3] $end
$var wire 1 Q" col3|lpm_mult_2|auto_generated|le3a [2] $end
$var wire 1 R" col3|lpm_mult_2|auto_generated|le3a [1] $end
$var wire 1 S" col3|lpm_mult_2|auto_generated|le3a [0] $end
$var wire 1 T" col1|lpm_mult_2|auto_generated|le4a [5] $end
$var wire 1 U" col1|lpm_mult_2|auto_generated|le4a [4] $end
$var wire 1 V" col1|lpm_mult_2|auto_generated|le4a [3] $end
$var wire 1 W" col1|lpm_mult_2|auto_generated|le4a [2] $end
$var wire 1 X" col1|lpm_mult_2|auto_generated|le4a [1] $end
$var wire 1 Y" col1|lpm_mult_2|auto_generated|le4a [0] $end
$var wire 1 Z" col3|lpm_mult_3|auto_generated|le3a [5] $end
$var wire 1 [" col3|lpm_mult_3|auto_generated|le3a [4] $end
$var wire 1 \" col3|lpm_mult_3|auto_generated|le3a [3] $end
$var wire 1 ]" col3|lpm_mult_3|auto_generated|le3a [2] $end
$var wire 1 ^" col3|lpm_mult_3|auto_generated|le3a [1] $end
$var wire 1 _" col3|lpm_mult_3|auto_generated|le3a [0] $end
$var wire 1 `" col3|lpm_mult_1|auto_generated|le4a [5] $end
$var wire 1 a" col3|lpm_mult_1|auto_generated|le4a [4] $end
$var wire 1 b" col3|lpm_mult_1|auto_generated|le4a [3] $end
$var wire 1 c" col3|lpm_mult_1|auto_generated|le4a [2] $end
$var wire 1 d" col3|lpm_mult_1|auto_generated|le4a [1] $end
$var wire 1 e" col3|lpm_mult_1|auto_generated|le4a [0] $end
$var wire 1 f" col2|lpm_mult_1|auto_generated|le4a [5] $end
$var wire 1 g" col2|lpm_mult_1|auto_generated|le4a [4] $end
$var wire 1 h" col2|lpm_mult_1|auto_generated|le4a [3] $end
$var wire 1 i" col2|lpm_mult_1|auto_generated|le4a [2] $end
$var wire 1 j" col2|lpm_mult_1|auto_generated|le4a [1] $end
$var wire 1 k" col2|lpm_mult_1|auto_generated|le4a [0] $end
$var wire 1 l" col3|lpm_mult_3|auto_generated|le4a [5] $end
$var wire 1 m" col3|lpm_mult_3|auto_generated|le4a [4] $end
$var wire 1 n" col3|lpm_mult_3|auto_generated|le4a [3] $end
$var wire 1 o" col3|lpm_mult_3|auto_generated|le4a [2] $end
$var wire 1 p" col3|lpm_mult_3|auto_generated|le4a [1] $end
$var wire 1 q" col3|lpm_mult_3|auto_generated|le4a [0] $end
$var wire 1 r" col2|lpm_mult_3|auto_generated|le3a [5] $end
$var wire 1 s" col2|lpm_mult_3|auto_generated|le3a [4] $end
$var wire 1 t" col2|lpm_mult_3|auto_generated|le3a [3] $end
$var wire 1 u" col2|lpm_mult_3|auto_generated|le3a [2] $end
$var wire 1 v" col2|lpm_mult_3|auto_generated|le3a [1] $end
$var wire 1 w" col2|lpm_mult_3|auto_generated|le3a [0] $end
$var wire 1 x" lpm_ff_p3|dffs [3] $end
$var wire 1 y" lpm_ff_p3|dffs [2] $end
$var wire 1 z" lpm_ff_p3|dffs [1] $end
$var wire 1 {" lpm_ff_p3|dffs [0] $end
$var wire 1 |" lpm_ff_c1|dffs [3] $end
$var wire 1 }" lpm_ff_c1|dffs [2] $end
$var wire 1 ~" lpm_ff_c1|dffs [1] $end
$var wire 1 !# lpm_ff_c1|dffs [0] $end
$var wire 1 "# lpm_ff_c2|dffs [3] $end
$var wire 1 ## lpm_ff_c2|dffs [2] $end
$var wire 1 $# lpm_ff_c2|dffs [1] $end
$var wire 1 %# lpm_ff_c2|dffs [0] $end
$var wire 1 &# lpm_ff_c3|dffs [3] $end
$var wire 1 '# lpm_ff_c3|dffs [2] $end
$var wire 1 (# lpm_ff_c3|dffs [1] $end
$var wire 1 )# lpm_ff_c3|dffs [0] $end
$var wire 1 *# col1|lpm_mult_1|auto_generated|le4a [5] $end
$var wire 1 +# col1|lpm_mult_1|auto_generated|le4a [4] $end
$var wire 1 ,# col1|lpm_mult_1|auto_generated|le4a [3] $end
$var wire 1 -# col1|lpm_mult_1|auto_generated|le4a [2] $end
$var wire 1 .# col1|lpm_mult_1|auto_generated|le4a [1] $end
$var wire 1 /# col1|lpm_mult_1|auto_generated|le4a [0] $end
$var wire 1 0# col1|lpm_mult_1|auto_generated|le3a [5] $end
$var wire 1 1# col1|lpm_mult_1|auto_generated|le3a [4] $end
$var wire 1 2# col1|lpm_mult_1|auto_generated|le3a [3] $end
$var wire 1 3# col1|lpm_mult_1|auto_generated|le3a [2] $end
$var wire 1 4# col1|lpm_mult_1|auto_generated|le3a [1] $end
$var wire 1 5# col1|lpm_mult_1|auto_generated|le3a [0] $end
$var wire 1 6# lpm_ff_p1|dffs [3] $end
$var wire 1 7# lpm_ff_p1|dffs [2] $end
$var wire 1 8# lpm_ff_p1|dffs [1] $end
$var wire 1 9# lpm_ff_p1|dffs [0] $end
$var wire 1 :# p3~combout [3] $end
$var wire 1 ;# p3~combout [2] $end
$var wire 1 <# p3~combout [1] $end
$var wire 1 =# p3~combout [0] $end
$var wire 1 ># p2~combout [3] $end
$var wire 1 ?# p2~combout [2] $end
$var wire 1 @# p2~combout [1] $end
$var wire 1 A# p2~combout [0] $end
$var wire 1 B# p1~combout [3] $end
$var wire 1 C# p1~combout [2] $end
$var wire 1 D# p1~combout [1] $end
$var wire 1 E# p1~combout [0] $end
$var wire 1 F# k33~combout [3] $end
$var wire 1 G# k33~combout [2] $end
$var wire 1 H# k33~combout [1] $end
$var wire 1 I# k33~combout [0] $end
$var wire 1 J# k32~combout [3] $end
$var wire 1 K# k32~combout [2] $end
$var wire 1 L# k32~combout [1] $end
$var wire 1 M# k32~combout [0] $end
$var wire 1 N# k31~combout [3] $end
$var wire 1 O# k31~combout [2] $end
$var wire 1 P# k31~combout [1] $end
$var wire 1 Q# k31~combout [0] $end
$var wire 1 R# k23~combout [3] $end
$var wire 1 S# k23~combout [2] $end
$var wire 1 T# k23~combout [1] $end
$var wire 1 U# k23~combout [0] $end
$var wire 1 V# k22~combout [3] $end
$var wire 1 W# k22~combout [2] $end
$var wire 1 X# k22~combout [1] $end
$var wire 1 Y# k22~combout [0] $end
$var wire 1 Z# k21~combout [3] $end
$var wire 1 [# k21~combout [2] $end
$var wire 1 \# k21~combout [1] $end
$var wire 1 ]# k21~combout [0] $end
$var wire 1 ^# k13~combout [3] $end
$var wire 1 _# k13~combout [2] $end
$var wire 1 `# k13~combout [1] $end
$var wire 1 a# k13~combout [0] $end
$var wire 1 b# k12~combout [3] $end
$var wire 1 c# k12~combout [2] $end
$var wire 1 d# k12~combout [1] $end
$var wire 1 e# k12~combout [0] $end
$var wire 1 f# k11~combout [3] $end
$var wire 1 g# k11~combout [2] $end
$var wire 1 h# k11~combout [1] $end
$var wire 1 i# k11~combout [0] $end
$upscope $end
$upscope $end
$enddefinitions $end
#0
$dumpvars
0!
b1 "
b10 #
b11 $
b100 %
b101 &
b110 '
b111 (
b1000 )
b1010 *
b1 +
b101 ,
b1010 -
x1
x0
x/
x.
x5
x4
x3
x2
x9
x8
x7
x6
x:
0;
1<
x=
1>
1?
1@
xA
xB
xC
xD
xE
xF
xG
xH
xI
xJ
xK
xL
xM
xN
xO
xP
xQ
xR
xS
xT
xU
xV
xW
xX
xY
xZ
x[
x\
x]
x^
x_
x`
xa
xb
xc
xd
xe
xf
xg
xh
xi
xj
xk
0l
xm
xn
xo
xp
xq
xr
xs
xt
xu
xv
xw
xx
xy
xz
x{
x|
x}
x~
x!!
x"!
x#!
x$!
x%!
x&!
x'!
x(!
x)!
x*!
x+!
x,!
x-!
x.!
x/!
x0!
x1!
x2!
x3!
x4!
x5!
x6!
x7!
x8!
x9!
x:!
x;!
x<!
x=!
x>!
x?!
x@!
xA!
xB!
xC!
xD!
xE!
xF!
xG!
xH!
xI!
xJ!
xK!
xL!
xM!
xN!
xO!
xP!
xQ!
xR!
xS!
xT!
xU!
xV!
xW!
xX!
xY!
xZ!
x[!
x\!
x]!
x^!
x_!
x`!
xa!
xb!
xc!
xd!
xe!
xf!
xg!
xh!
xi!
xj!
xk!
xl!
xm!
xn!
xo!
xp!
xq!
xw!
xv!
xu!
xt!
zs!
zr!
0{!
0z!
0y!
0x!
x#"
x""
x!"
x~!
z}!
z|!
x)"
x("
z'"
z&"
z%"
z$"
x/"
x."
z-"
z,"
z+"
z*"
x5"
x4"
z3"
z2"
z1"
z0"
x;"
x:"
x9"
x8"
z7"
z6"
xA"
x@"
x?"
x>"
z="
z<"
xG"
xF"
xE"
xD"
zC"
zB"
xM"
xL"
zK"
zJ"
zI"
zH"
xS"
xR"
xQ"
xP"
zO"
zN"
xY"
xX"
zW"
zV"
zU"
zT"
x_"
x^"
x]"
x\"
z["
zZ"
xe"
xd"
zc"
zb"
za"
z`"
xk"
xj"
zi"
zh"
zg"
zf"
xq"
xp"
zo"
zn"
zm"
zl"
xw"
xv"
xu"
xt"
zs"
zr"
0{"
0z"
0y"
0x"
0!#
0~"
0}"
0|"
0%#
0$#
0##
0"#
0)#
0(#
0'#
0&#
x/#
x.#
z-#
z,#
z+#
z*#
x5#
x4#
x3#
x2#
z1#
z0#
09#
08#
07#
06#
0=#
1<#
0;#
1:#
1A#
0@#
1?#
0>#
1E#
0D#
0C#
0B#
0I#
1H#
0G#
1F#
0M#
0L#
0K#
1J#
1Q#
1P#
1O#
0N#
0U#
1T#
1S#
0R#
1Y#
0X#
1W#
0V#
0]#
0\#
1[#
0Z#
1a#
1`#
0_#
0^#
0e#
1d#
0c#
0b#
1i#
0h#
0g#
0f#
$end
#122
0m
#3487
05
#3506
06
#3542
0/
#3707
01
#3741
04
#3830
08
#3861
00
#3876
07
09
#4012
02
#4015
03
#4206
0.
#5123
1_"
#5124
1\"
#5125
1]"
#5127
1^"
#5137
0?"
#5230
1j
#5235
1N!
#5246
0g
#5261
07!
#5279
0A"
#5283
0@"
#5300
0u"
0v"
#5304
0w"
0t"
#5305
1P"
#5307
1R"
#5310
1S"
#5317
0>"
#5332
1Q!
#5334
1F"
0e
1t!
#5337
0]
#5349
1Q"
#5398
0`
#5411
0e"
#5413
1f
0'!
#5436
0d
#5437
1:"
#5438
15"
#5439
1;"
#5444
18"
#5475
1j!
1q"
#5478
1i
#5498
05#
#5503
04#
#5507
0?!
#5509
0M"
#5521
1E"
0-!
#5522
1D"
#5525
1G"
#5537
0P!
#5556
0)!
#5578
1@!
#5602
1b
#5610
19"
#5617
0p
1~
#5627
1*!
#5636
0~!
#5638
1v!
#5643
02#
0!"
#5644
0""
0Y"
0#"
1u!
#5645
1w!
03#
#5688
1x
#5696
1>!
#5730
0/#
#5744
0k
#5864
0O!
#5914
1/"
1D!
#5972
0I
#5973
0\
#6001
05!
#6010
0"!
#6033
0.!
0^
#6035
0k!
#6047
0L"
#6054
0[
#6066
1)"
#6070
0w
#6075
0k"
0G!
#6079
1h
#6083
1#!
#6108
1_
#6110
0n
#6111
0.#
#6125
0X"
#6132
1("
#6154
0$!
1p"
#6191
1I!
#6220
0c!
#6225
1%!
#6293
1l!
#6304
0d"
#6316
0Z!
#6327
1a
#6337
14"
#6364
0m!
#6376
1N
#6380
0R!
#6403
0M
#6423
1\!
#6431
09!
#6435
1n!
#6446
0^!
#6447
0R
#6449
0c
#6451
08!
#6475
0!!
#6479
0+!
#6484
0D
#6493
0C
#6494
0d!
#6506
0A
#6518
1U
#6519
1J!
#6542
0G
#6556
0(!
#6565
1V
#6590
0K!
#6639
0q
0r
#6677
0T!
#6680
0E
#6703
0P
#6754
1E!
#6774
0S
#6776
0j"
#6778
0A!
#6786
0Q
#6833
0]!
#6845
0o!
#6857
0T
#6866
0/!
1."
#6868
0&!
#6904
0e!
#6912
0X
#6929
0J
#6942
0F
#6955
0a!
#6985
1L!
#7012
0K
#7075
0:!
#7111
0O
#7136
0,!
#7146
1U!
#7167
0_!
#7173
1H!
#7182
0S!
#7202
0y
#7217
0V!
#7221
0u
#7238
1f!
#7276
00!
#7278
1z
#7283
0s
#7309
0W
#7349
01!
#7363
0<!
#7386
1h!
#7394
0B
#7425
0H
#7434
1B!
#7457
0p!
#7548
0Y
#7636
0;!
#7667
0F!
#7670
0`!
#7674
02!
#7693
0t
#7719
0L
#7757
0g!
#7866
1|
#7872
0{
#7937
03!
#7948
0Z
#7969
0[!
#8032
0M!
#8091
0o
#8123
0X!
#8125
06!
#8305
0=!
#8347
04!
#8362
0v
#8420
0C!
#8522
0b!
#8545
0}
#8613
0i!
#8702
0W!
#8835
0q!
#9100
0Y!
#50000
1!
0:
#50979
1l
#51101
1m
#52606
19#
#52610
1{!
1y!
#52614
1x"
#52615
1z"
#53108
0]"
#53112
15#
#53115
0G"
#53124
0P"
#53128
1Y"
#53131
0R"
#53133
1A"
#53293
1M"
#53381
08"
#53389
0v!
#53397
1?"
#53569
0("
#53584
0:"
#53627
1k"
#53780
1e"
#53797
1P!
#53836
1c
#53865
0p"
#53901
1!!
#53966
0N
#53990
1F
#53993
1M
#54016
1^
#54018
1k!
#54037
1R
#54188
1T!
#54216
1K!
#54243
1J
#54253
1r
#54260
1d!
#54269
1$!
#54284
1]!
#54285
19!
#54293
1C
#54294
1&!
#54331
0V
#54340
0%!
#54376
1Q
#54670
1e!
#54679
1E
#54690
1O
#54696
1{
#54720
1S
#54750
0&!
#54859
1L
#54910
1R!
#54924
1B
#54935
1Y
#54937
0T!
#54950
1;!
#54956
1H
#55236
0f!
#55307
1W
#55320
1S!
#55369
1}
#55548
1[!
#55560
1C!
#55605
1i!
#55608
0L
#55619
1=!
#55621
1o
#55656
16!
#55690
1v
#55720
1W!
#55830
13!
#55854
0}
#56118
1Y!
#56240
14!
#56309
0C!
#100000
b1001 +
b1011 +
b100 ,
b1110 -
b1100 -
b1101 -
0!
1:
